<svg width="67" height="19" viewBox="0 0 67 19" fill="none" xmlns="http://www.w3.org/2000/svg">
<path d="M9.66046 15.1645C9.78512 15.1645 9.90977 15.2269 10.0344 15.2893L10.9693 16.3502C10.4707 16.9742 9.78512 17.5359 9.03721 17.8479C8.2893 18.2224 7.35442 18.3472 6.23256 18.3472C5.29767 18.3472 4.42512 18.16 3.61488 17.8479C2.86698 17.5359 2.1814 17.0366 1.62047 16.475C1.05953 15.9133 0.685581 15.1645 0.373953 14.3532C0.124651 13.5419 0 12.6683 0 11.7322C0 10.7337 0.186977 9.86001 0.498605 9.04874C0.810233 8.23746 1.24651 7.551 1.80744 6.92695C2.36837 6.3653 3.05395 5.86605 3.86419 5.55402C4.67442 5.242 5.54698 5.05478 6.48186 5.05478C7.41674 5.05478 8.2893 5.242 8.97488 5.55402C9.72279 5.86605 10.346 6.30289 10.8447 6.80213L10.0344 7.92543C9.97209 7.98784 9.90977 8.05025 9.84744 8.11265C9.78512 8.17506 9.66047 8.17506 9.53581 8.17506C9.47349 8.17506 9.34884 8.17506 9.28651 8.11265C9.16186 8.05025 9.09953 7.98784 8.97488 7.92543C8.85023 7.86303 8.72558 7.73822 8.60093 7.67581C8.47628 7.61341 8.2893 7.48859 8.10233 7.42619C7.91535 7.36378 7.66605 7.30138 7.41674 7.23897C7.16744 7.17657 6.85581 7.17657 6.48186 7.17657C5.92093 7.17657 5.36 7.30138 4.8614 7.4886C4.36279 7.67581 3.98884 7.98784 3.61488 8.36227C3.24093 8.73671 2.99163 9.23595 2.80465 9.7976C2.55535 10.2968 2.49302 10.9833 2.49302 11.7322C2.49302 12.481 2.61767 13.1051 2.80465 13.6667C2.99163 14.2284 3.30326 14.7276 3.67721 15.1021C4.05116 15.4765 4.42512 15.7885 4.92372 15.9758C5.42233 16.163 5.92093 16.2878 6.48186 16.2878C6.79349 16.2878 7.10512 16.2878 7.35442 16.2254C7.60372 16.163 7.85302 16.163 8.10233 16.0382C8.35163 15.9758 8.5386 15.8509 8.72558 15.7261C8.91256 15.6013 9.09953 15.4765 9.34884 15.2893C9.41116 15.2269 9.47349 15.1645 9.53581 15.1645C9.53581 15.1645 9.59814 15.1645 9.66046 15.1645Z" fill="#002C3E"/>
<path d="M15.0828 18.2225H13.5247C13.0261 18.2225 12.6521 17.848 12.6521 17.3488V5.17972H15.0828V18.2225Z" fill="#002C3E"/>
<path d="M27.0493 5.17972V7.1767H23.1228V18.2225H21.5646C21.066 18.2225 20.6921 17.848 20.6921 17.3488V7.1767H16.8279V5.17972H27.0493Z" fill="#002C3E"/>
<path d="M31.2251 18.2225H29.667C29.1684 18.2225 28.7944 17.848 28.7944 17.3488V5.17972H31.2251V18.2225Z" fill="#002C3E"/>
<path d="M40.948 13.4173C41.0104 13.6045 41.135 13.8541 41.1973 14.0413C41.2597 13.7917 41.3843 13.6045 41.4466 13.4173C41.509 13.23 41.6336 12.9804 41.7583 12.7932L45.6224 5.55415C45.6848 5.49175 45.7471 5.36694 45.7471 5.36694C45.8094 5.30453 45.8717 5.30453 45.9341 5.24213C45.9964 5.24213 46.0587 5.17972 46.1211 5.17972C46.1834 5.17972 46.308 5.17972 46.3704 5.17972H48.1778V18.2225H46.9313C46.4327 18.2225 46.0587 17.848 46.0587 17.3488V9.79773C46.0587 9.67292 46.0587 9.4857 46.0587 9.29848C46.0587 9.11127 46.0587 8.92406 46.1211 8.73684L42.1945 16.1007C42.0076 16.4751 41.7583 16.6623 41.3843 16.6623H41.0727C40.6987 16.6623 40.3871 16.4751 40.2001 16.1007L36.2113 8.67443C36.2113 8.86165 36.2736 9.04886 36.2736 9.23608C36.2736 9.4233 36.2736 9.61052 36.2736 9.73533V18.1601H34.1545V5.17972H35.962C36.0866 5.17972 36.149 5.17972 36.2113 5.17972C36.2736 5.17972 36.3359 5.17972 36.3983 5.24213C36.4606 5.24213 36.5229 5.30453 36.5852 5.36694C36.6476 5.42934 36.7099 5.49175 36.7099 5.55415L40.5741 12.7932C40.7611 12.9804 40.8234 13.23 40.948 13.4173Z" fill="#002C3E"/>
<path d="M53.5376 18.2225H51.9795C51.4809 18.2225 51.1069 17.848 51.1069 17.3488V5.17972H53.5376V18.2225Z" fill="#002C3E"/>
<path d="M59.3339 11.4827L55.1581 5.17972H57.5888C57.7758 5.17972 57.9004 5.17972 57.9627 5.24213C58.0251 5.30453 58.0874 5.36693 58.1497 5.49175L61.079 10.297C61.079 10.2346 61.1413 10.1722 61.2037 10.0474C61.266 9.98495 61.266 9.92254 61.3283 9.79773L64.0707 5.49175C64.133 5.36693 64.1953 5.30453 64.2576 5.24213C64.32 5.17972 64.4446 5.17972 64.5693 5.17972H66.8753L62.6995 11.4203L67 18.2225H64.5693C64.3823 18.2225 64.2576 18.1601 64.1953 18.0977C64.0707 18.0353 64.0083 17.9105 63.946 17.7856L60.9544 12.7932C60.892 12.918 60.8297 13.0428 60.7674 13.1676L57.9004 17.7856C57.8381 17.9105 57.7758 17.9729 57.6511 18.0977C57.5888 18.1601 57.4641 18.2225 57.2772 18.2225H55.0334L59.3339 11.4827Z" fill="#002C3E"/>
<path d="M31.2251 0H28.7944V2.55863H31.2251V0Z" fill="#D3BB2A"/>
</svg>
